!
version 15.1
no service timestamps log datetime msec
no service timestamps debug datetime msec
no service password-encryption
!
hostname Router
!
!
!
!
!
!
!
!
no ip cef
no ipv6 cef
!
!
!
!
license udi pid CISCO2811/K9 sn FTX1017C1ZP-
!
!
!
!
!
!
!
!
!
!
!
spanning-tree mode pvst
!
!
!
!
!
!
interface FastEthernet0/0
 no ip address
 duplex auto
 speed auto
!
interface FastEthernet0/1
 ip address 15.203.48.118 255.255.255.252
 duplex auto
 speed auto
!
interface FastEthernet1/0
 ip address 172.18.80.133 255.255.255.128
!
interface Vlan1
 no ip address
 shutdown
!
router rip
!
ip classless
!
ip flow-export version 9
!
!
!
no cdp run
!
!
!
!
!
!
line con 0
!
line aux 0
!
line vty 0 4
 login
!
!
!
end

